{
	"status": {
		"en_route_delivery": {
			"to": "current",
			"tracker": true,
			"email": "browns_en_route",
			"sms": "browns_sms_en_route"
		},
		"dropoff": {
			"to": "current",
			"email": "browns_delivered",
			"sms": "browns_sms_delivered"
		},
		"delivered": {
			"to": "current",
			"email": "browns_delivered",
			"sms": "browns_sms_delivered"
		}
	},
	"customer_sla": [
		{
			"time": 20,
			"message_type": {
				"email": "browns_late",
				"sms": "browns_sms_late",
				"tracker": true
			}
		}
	],
	"customer_eta": [
		{
			"distance": 600,
			"message_type": {
				"email": "browns_almost_there",
				"sms": "browns_sms_almost_there"
			}
		}
	]
}