Merchant name,Line 1,Line 2,City,Postcode/ Zipcode,State,DP1,API_Key,Barer Token,DP2,DP3,DP4,DP5,Travel Zone,UK/US,Client ID,Token
House of Petula,140 grays Inn Road,,London,WC1X 8AZ,,Urbit,638e2b5a-7888-41ec-8c1d-08c5ee85d3a1,eyJ0eXAiOiJKV1QiLCJhbGciOiJIUzI1NiJ9.eyJpYXQiOjE1NzMyMzI1MDIsImlzcyI6InVyYml0LmNvbSIsIm5hbWUiOiJIb3VzZSBvZiBQZXR1bGEiLCJzdWIiOiI2MzhlMmI1YS03ODg4LTQxZWMtOGMxZC0wOGM1ZWU4NWQzYTEiLCJleHAiOjE4ODg1OTI1MDIsInJvbGVzIjpbInJldGFpbGVyIl0sImp0aSI6IjFjNGJlM2QxLWIzYWEtNGMyMi1iMWQ3LWJjNDdkYWFhYzM1YSJ9.BuhpK0ph-O19GXrwedUyd2WH_dad2eTqTSKMHSzWyzc,Addisson Lee,Stuart,GENII,Passage,1,UK,166,07595DDF-DA75-6BFF-5013-0C30A1691828
Garden of Eden,"10 Wentworth Street,",,London,E1 7TF,,Urbit,35bfc2ce-d008-45db-ac5b-f39fed49fd31,eyJ0eXAiOiJKV1QiLCJhbGciOiJIUzI1NiJ9.eyJleHAiOjE4ODg1OTI1MzcsIm5hbWUiOiJHYXJkZW4gb2YgRWRlbiIsImlzcyI6InVyYml0LmNvbSIsInJvbGVzIjpbInJldGFpbGVyIl0sInN1YiI6IjM1YmZjMmNlLWQwMDgtNDVkYi1hYzViLWYzOWZlZDQ5ZmQzMSIsImp0aSI6Ijc0YjYwZTFjLTkzOGUtNDQzZi05OTkwLTNhMTJmYmUzYzhlOCIsImlhdCI6MTU3MzIzMjUzN30.YoPk04NfWaDicHGwy5fmkfPeh13p_WuJqQ4qZcqmNis,Addisson Lee,Stuart,GENII,Passage,1,UK,167,468D8A37-E187-4822-A650-94C5B0008F81
Floetica,"Highway Business Park, Unit 10 Heckford St",,London,E1 9HR,,Urbit,972e448b-6e73-47bd-999d-7c5b67c36c6d,eyJ0eXAiOiJKV1QiLCJhbGciOiJIUzI1NiJ9.eyJpYXQiOjE1NzMyMzI5MzksImlzcyI6InVyYml0LmNvbSIsIm5hbWUiOiJGbG9ldGljYSIsInN1YiI6Ijk3MmU0NDhiLTZlNzMtNDdiZC05OTlkLTdjNWI2N2MzNmM2ZCIsImV4cCI6MTg4ODU5MjkzOSwicm9sZXMiOlsicmV0YWlsZXIiXSwianRpIjoiMjY5ZjVlNmItMDU2NC00ZDI0LTg3NDEtYmMzZTE3NDZmNjY4In0.hDWGnKJ4xoNpeZjztLlhT3CJt2JrmWSZF5mTk7ONDdM,Addisson Lee,Stuart,GENII,Passage,1,UK,168,9F4D6CC6-B5F5-05B2-68EC-A2650313BD25
Lavender Green,46 Fulham Road,,London,SW3 6HH,,Urbit,3f093829-a051-426f-9a00-29a5e081b4a7,eyJ0eXAiOiJKV1QiLCJhbGciOiJIUzI1NiJ9.eyJpYXQiOjE1NzMyMzIxNjgsImlzcyI6InVyYml0LmNvbSIsIm5hbWUiOiJMYXZlbmRlciBHcmVlbiIsInN1YiI6IjNmMDkzODI5LWEwNTEtNDI2Zi05YTAwLTI5YTVlMDgxYjRhNyIsImV4cCI6MTg4ODU5MjE2OCwicm9sZXMiOlsicmV0YWlsZXIiXSwianRpIjoiM2UyYzRhMTctZTk0NS00NmUwLWIwZTctMmQ1OTY0ZjdkZGM4In0.BDdZFXKyDghPCq9qXCfMEHYPtez2FsnxnLbYwIFHv2g,Addisson Lee,Stuart,,Passage,1,UK,177,3CD338A6-D442-C222-9508-DFF9138CCEE1
Delta of Venus,3 Acton St,,London,WC1X 9LT,,Urbit,1acfbf96-a401-496e-8012-574e88bae053,eyJhbGciOiJIUzI1NiIsInR5cCI6IkpXVCJ9.eyJpYXQiOjE1NzMyMzI0NjUsImV4cCI6MTg4ODU5MjQ2NSwibmFtZSI6IkRlbHRhIG9mIFZlbnVzIiwiaXNzIjoidXJiaXQuY29tIiwicm9sZXMiOlsicmV0YWlsZXIiXSwic3ViIjoiMWFjZmJmOTYtYTQwMS00OTZlLTgwMTItNTc0ZTg4YmFlMDUzIiwianRpIjoiNzJiNWYyY2YtYTdhOC00MTBlLWE4NGMtNGEzNmQ3MDA2ZjA3In0.HvJFl09cWynt7toKZO9OadcXTtavnSwNLb1Wb3v9ZQE,Addisson Lee,Stuart,GENII,Passage,1,UK,200,18BA8EB6-66D0-4290-96C4-F69E65F03AE0
Victoria Windsor,41 Moreton St,Pimlico,London,SW1V 2NY,,Urbit,0324c9a8-5022-434c-80b4-f1ab70b0ac61,eyJhbGciOiJIUzI1NiIsInR5cCI6IkpXVCJ9.eyJpYXQiOjE1NzMyMzIxMjksImV4cCI6MTg4ODU5MjEyOSwibmFtZSI6IlZpY3RvcmlhIFdpbmRzb3IiLCJpc3MiOiJ1cmJpdC5jb20iLCJyb2xlcyI6WyJyZXRhaWxlciJdLCJzdWIiOiIwMzI0YzlhOC01MDIyLTQzNGMtODBiNC1mMWFiNzBiMGFjNjEiLCJqdGkiOiIyOTg3MTdmMi1kZjkzLTQ2ZDYtODlmYy1iZGM2Y2IxZGM4OGIifQ.nDS8snjqcvhuUqLz1-GfQluTGUvzIP8OXD6MmlVjHMg,Addisson Lee,Stuart,GENII,Passage,1,UK,169,9844856A-E11C-547A-081C-5456476C66B5
Petersham Nurseries,27 King St,,London,WC2E 8JB,,Urbit,ddf9d0c6-0c3c-4e3f-9ce2-2e1433eab9cb,eyJhbGciOiJIUzI1NiIsInR5cCI6IkpXVCJ9.eyJpYXQiOjE1NzMyMzI4MjEsImV4cCI6MTg4ODU5MjgyMSwibmFtZSI6IlBldGVyc2hhbSBOdXJzZXJpZXMiLCJpc3MiOiJ1cmJpdC5jb20iLCJyb2xlcyI6WyJyZXRhaWxlciJdLCJzdWIiOiJkZGY5ZDBjNi0wYzNjLTRlM2YtOWNlMi0yZTE0MzNlYWI5Y2IiLCJqdGkiOiJjMDM5YmE1ZS1kNTYxLTRmZTgtOWQxNi1lOTk5YWUyNjZjZmIifQ.2A_pY1i8mUuQ0TlfM0J0LHbUFZLD89SC20I5k3GoagA,Addisson Lee,Stuart,GENII,Passage,1,UK,170,4E5777D9-AEC2-3523-7EC7-3563CAD43914
Orchidya ,42 Store St,Bloomsbury,London,WC1E 7DB,,Urbit,a6131452-bd91-4d47-817b-682d9979ba28,eyJhbGciOiJIUzI1NiIsInR5cCI6IkpXVCJ9.eyJpYXQiOjE1NzMyMzMwMTEsImV4cCI6MTg4ODU5MzAxMSwibmFtZSI6Ik9yY2hpZHlhIiwiaXNzIjoidXJiaXQuY29tIiwicm9sZXMiOlsicmV0YWlsZXIiXSwic3ViIjoiYTYxMzE0NTItYmQ5MS00ZDQ3LTgxN2ItNjgyZDk5NzliYTI4IiwianRpIjoiMmIyNTQ5NjAtY2I1Zi00NjU5LWJiNzktNTI0OWZhOTMzOTY4In0.Bq_EmWwwPiUD8Q9nPlkeTr6xtAsKwuVg5F9a_DmuqMc,Addisson Lee,Stuart,GENII,Passage,1,UK,171,6316AC53-BBA1-DEE2-7D42-58AB19845FF7
Orchidya ,42 Store St,Bloomsbury,London,WC1E 6HE,,Urbit,a6131452-bd91-4d47-817b-682d9979ba28,eyJhbGciOiJIUzI1NiIsInR5cCI6IkpXVCJ9.eyJpYXQiOjE1NzMyMzMwMTEsImV4cCI6MTg4ODU5MzAxMSwibmFtZSI6Ik9yY2hpZHlhIiwiaXNzIjoidXJiaXQuY29tIiwicm9sZXMiOlsicmV0YWlsZXIiXSwic3ViIjoiYTYxMzE0NTItYmQ5MS00ZDQ3LTgxN2ItNjgyZDk5NzliYTI4IiwianRpIjoiMmIyNTQ5NjAtY2I1Zi00NjU5LWJiNzktNTI0OWZhOTMzOTY4In0.Bq_EmWwwPiUD8Q9nPlkeTr6xtAsKwuVg5F9a_DmuqMc,Addisson Lee,Stuart,GENII,Passage,1,UK,171,6316AC53-BBA1-DEE2-7D42-58AB19845FF7
The Real Flower Company,13 Cale St,Chelsea,London,SW3 3QS,,Urbit,b528050f-2357-470f-8217-a18093b82084,eyJ0eXAiOiJKV1QiLCJhbGciOiJIUzI1NiJ9.eyJleHAiOjE4ODg1OTE5NjAsIm5hbWUiOiJUaGUgUmVhbCBGbG93ZXIgQ29tcGFueSIsImlzcyI6InVyYml0LmNvbSIsInJvbGVzIjpbInJldGFpbGVyIl0sInN1YiI6ImI1MjgwNTBmLTIzNTctNDcwZi04MjE3LWExODA5M2I4MjA4NCIsImp0aSI6Ijc1YWNhNmRjLWQ5ZDItNDg4ZC04NzBiLTc4ZDI4NzI0Y2QzYSIsImlhdCI6MTU3MzIzMTk2MH0.b1oZKTAxLQNPNTpnwPsaRwx3T-ib-fTLb-ZOSz5AwLE,Addisson Lee,Stuart,,Passage,1,UK,178,DE1A6E19-8609-0356-FE43-6CC3AF980DFD
Aflorum,36 Caledonian Rd,Kings Cross,London,N1 9DT,,Urbit,ddc29a42-d8fb-48e0-b30e-8225a6f9a12e,eyJhbGciOiJIUzI1NiIsInR5cCI6IkpXVCJ9.eyJpYXQiOjE1NzMyMzIzNTQsImV4cCI6MTg4ODU5MjM1NCwibmFtZSI6IkFmbG9ydW0iLCJpc3MiOiJ1cmJpdC5jb20iLCJyb2xlcyI6WyJyZXRhaWxlciJdLCJzdWIiOiJkZGMyOWE0Mi1kOGZiLTQ4ZTAtYjMwZS04MjI1YTZmOWExMmUiLCJqdGkiOiIwYWJkZWUxOS01ZTlhLTQ1NGMtYmRiMy04MTlmOWM4NTE3MGQifQ.OSPjqKBsXAKG_dIhJH_WTPJkISvUZcknWJTo6elZuMI,Addisson Lee,Stuart,GENII,Passage,1,UK,172,BE508593-E4F0-6721-D919-145D677D4231
Flower Station, 55 Park Rd,Marylebone,London,NW1 6XU,,Urbit,7316359b-b5c8-4bca-bc2c-2873140bf46f,eyJ0eXAiOiJKV1QiLCJhbGciOiJIUzI1NiJ9.eyJleHAiOjE4ODg1OTI0MjYsIm5hbWUiOiJGbG93ZXIgU3RhdGlvbiIsImlzcyI6InVyYml0LmNvbSIsInJvbGVzIjpbInJldGFpbGVyIl0sInN1YiI6IjczMTYzNTliLWI1YzgtNGJjYS1iYzJjLTI4NzMxNDBiZjQ2ZiIsImp0aSI6IjViMzIzMThhLTcxMTAtNDMwYi05NTlhLTE5ZTBmNjYyNGE1MiIsImlhdCI6MTU3MzIzMjQyNn0.9PaRrC8ibPUMw_R9PB4G9zgDFgFe0ObVpfMt4DsDJI0,Addisson Lee,Stuart,GENII,Passage,2,UK,173,528C08AE-E464-F8A9-C4FD-DB00473FAF3A
Fluoresse,37 Rosebery Ave,,London,EC1R 4SH,,Urbit,576bc9a6-b23a-4a72-9327-6ea00abe7271,eyJ0eXAiOiJKV1QiLCJhbGciOiJIUzI1NiJ9.eyJyb2xlcyI6WyJyZXRhaWxlciJdLCJpc3MiOiJ1cmJpdC5jb20iLCJpYXQiOjE1Nzk1MzA0NDAsImV4cCI6MTg5NDg5MDQ0MCwibmFtZSI6IkZsdW9yZXNzZSIsImp0aSI6IjAzODhmZmFhLWEwMGYtNDRhMC05YTE3LWEwMDZlZjc3MjI2MCIsInN1YiI6IjU3NmJjOWE2LWIyM2EtNGE3Mi05MzI3LTZlYTAwYWJlNzI3MSJ9.j3gIAkZSDwj5Eszph6UikXCo1Sw3jBm_aoO8EObPm-U,Addisson Lee,Stuart,GENII,Passage,2,UK,174,6F4585B4-54B5-2138-8179-596A762FA0D5
Fluoresse,178-180 Piccadilly,,London,W1J 9ER,,Urbit,576bc9a6-b23a-4a72-9327-6ea00abe7271,eyJ0eXAiOiJKV1QiLCJhbGciOiJIUzI1NiJ9.eyJyb2xlcyI6WyJyZXRhaWxlciJdLCJpc3MiOiJ1cmJpdC5jb20iLCJpYXQiOjE1Nzk1MzA0NDAsImV4cCI6MTg5NDg5MDQ0MCwibmFtZSI6IkZsdW9yZXNzZSIsImp0aSI6IjAzODhmZmFhLWEwMGYtNDRhMC05YTE3LWEwMDZlZjc3MjI2MCIsInN1YiI6IjU3NmJjOWE2LWIyM2EtNGE3Mi05MzI3LTZlYTAwYWJlNzI3MSJ9.j3gIAkZSDwj5Eszph6UikXCo1Sw3jBm_aoO8EObPm-U,,,,,,,,
Debbie Western Flowers,44 Albion Street,Rotherhithe,London,SE16 7JQ,,Urbit,606ec3cd-75a9-4ed7-9da6-10ceb5463fba,eyJhbGciOiJIUzI1NiIsInR5cCI6IkpXVCJ9.eyJpYXQiOjE1NzMyMzI1NzAsImV4cCI6MTg4ODU5MjU3MCwibmFtZSI6IkRlYmJpZSBXZXN0ZXJuIEZsb3dlcnMiLCJpc3MiOiJ1cmJpdC5jb20iLCJyb2xlcyI6WyJyZXRhaWxlciJdLCJzdWIiOiI2MDZlYzNjZC03NWE5LTRlZDctOWRhNi0xMGNlYjU0NjNmYmEiLCJqdGkiOiJkMTEzM2EyOS0wN2YxLTQzOTAtOGQ1YS1lZDc3ZTIyMzA4ODgifQ._Gb06bBWcOQp9O3UWot41Lo3zGC5Gou0mfOLZRPC8IM,Addisson Lee,Stuart,,Passage,2,UK,179,F4F5ED34-2D41-8706-D830-E69FA2311A6A
Bloomside,813 Fulham Road,,London,SW6 5HG,,Urbit,ee1a0bb8-10fd-4a49-a400-cdcc9efd73c2,eyJ0eXAiOiJKV1QiLCJhbGciOiJIUzI1NiJ9.eyJleHAiOjE4ODg1OTIzMjMsIm5hbWUiOiJCbG9vbXNpZGUiLCJpc3MiOiJ1cmJpdC5jb20iLCJyb2xlcyI6WyJyZXRhaWxlciJdLCJzdWIiOiJlZTFhMGJiOC0xMGZkLTRhNDktYTQwMC1jZGNjOWVmZDczYzIiLCJqdGkiOiI3M2NjNDRhOC1mZjU5LTRiYTYtOWI3OS0yOTIyNjViYWRkMDkiLCJpYXQiOjE1NzMyMzIzMjN9.FOpqAiU8MHN1p2UBuVbSK676rh0qSNlppG_5smm66hU,Addisson Lee,Stuart,,Passage,2,UK,180,A5B805B3-E310-86C4-4541-C0D087EEEA49
PM Flowers,26 Lillie Rd,Hammersmith,London,SW6 1TS,,Urbit,8165047f-9e8f-439f-8a9d-0cd054315eb7,eyJ0eXAiOiJKV1QiLCJhbGciOiJIUzI1NiJ9.eyJpYXQiOjE1NzMyMzIwNDksImlzcyI6InVyYml0LmNvbSIsIm5hbWUiOiJQTSBGbG93ZXJzIExpbGxpZSBSb2FkIiwic3ViIjoiODE2NTA0N2YtOWU4Zi00MzlmLThhOWQtMGNkMDU0MzE1ZWI3IiwiZXhwIjoxODg4NTkyMDQ5LCJyb2xlcyI6WyJyZXRhaWxlciJdLCJqdGkiOiJlY2ZjZDdkZC1hMjc0LTRlMDUtYTUzZC00YmY1MzQzYzQyYTQifQ.fAMMSCI2hPxL1KGzlhZ_dhHY6vZk9sTGrD-rUT2LthE,Addisson Lee,Stuart,,Passage,2,UK,181,CB87B99C-79C3-56D8-827D-3DBF6083C095
PM Flowers,52 Connaught Street,,London,W2 2BB,,Urbit,effa74cf-cf81-4ba3-a086-daf329ea9f7c,eyJ0eXAiOiJKV1QiLCJhbGciOiJIUzI1NiJ9.eyJpYXQiOjE1NzMyMzIyODcsImlzcyI6InVyYml0LmNvbSIsIm5hbWUiOiJQTSBGbG93ZXJzIENvbm5hdWdodCBTdCIsInN1YiI6ImVmZmE3NGNmLWNmODEtNGJhMy1hMDg2LWRhZjMyOWVhOWY3YyIsImV4cCI6MTg4ODU5MjI4Nywicm9sZXMiOlsicmV0YWlsZXIiXSwianRpIjoiNWJjOWU0YjYtYWRhNy00Mzk5LTk2M2EtNWY2MTkwMzVhNzlhIn0.JAyT-0dOvBEwhKEA-UfTsYff8o_Ws1bohh03kLVVRV4,,,,,1,UK,,
Sayeh and Galton Flowers,13 Flask Walk,Hampstead,London,NW3 1HJ,,Urbit,dd7ce14b-a341-4ffd-85b3-dd3d666ce69b,eyJ0eXAiOiJKV1QiLCJhbGciOiJIUzI1NiJ9.eyJleHAiOjE4ODg1OTI2NTYsIm5hbWUiOiJTYXllaCBhbmQgR2FsdG9uIEZsb3dlcnMiLCJpc3MiOiJ1cmJpdC5jb20iLCJyb2xlcyI6WyJyZXRhaWxlciJdLCJzdWIiOiJkZDdjZTE0Yi1hMzQxLTRmZmQtODViMy1kZDNkNjY2Y2U2OWIiLCJqdGkiOiIyMDRiZDRmYy1jNWUxLTRlYTctYTlmOS1iY2U5NmJmMjY2ZWQiLCJpYXQiOjE1NzMyMzI2NTZ9.fUyn1lFmE7cpPwQSEyrHuiAXyciMLIeou71RArIyU3Y,Addisson Lee,Stuart,,Passage,2,UK,182,27F9413B-D784-204F-9651-DF35DD837D79
Clapham Flowers,"Unit 1, Clapham South Station ",Nightingale Lane ,London,SW4 9AE,,Urbit,3a640e91-cae1-4cc3-946c-5b90890b0a22,eyJ0eXAiOiJKV1QiLCJhbGciOiJIUzI1NiJ9.eyJleHAiOjE4ODg1OTIyMDYsIm5hbWUiOiJDbGFwaGFtIEZsb3dlcnMiLCJpc3MiOiJ1cmJpdC5jb20iLCJyb2xlcyI6WyJyZXRhaWxlciJdLCJzdWIiOiIzYTY0MGU5MS1jYWUxLTRjYzMtOTQ2Yy01YjkwODkwYjBhMjIiLCJqdGkiOiIzYTI4ZTExMy1hODUwLTRmZWYtODk0Mi1jOWU5OTQ3ZjYzMWQiLCJpYXQiOjE1NzMyMzIyMDZ9.LUXBl8T2s4nVEmgG3odgkZ_2Lw_IL0EtelgbXlQBDPo,Addisson Lee,Stuart,,Passage,2,UK,183,2867B84F-ECF7-0A35-D32E-4E8985DF6748
Rebel Rebel ,117 Mare St,,London,E8 4RU,,Urbit,322dddb6-93b7-4b27-8ca2-4b1c68f4cf08,eyJhbGciOiJIUzI1NiIsInR5cCI6IkpXVCJ9.eyJpYXQiOjE1NzMyMzIyNDgsImV4cCI6MTg4ODU5MjI0OCwibmFtZSI6IlJlYmVsIFJlYmVsIiwiaXNzIjoidXJiaXQuY29tIiwicm9sZXMiOlsicmV0YWlsZXIiXSwic3ViIjoiMzIyZGRkYjYtOTNiNy00YjI3LThjYTItNGIxYzY4ZjRjZjA4IiwianRpIjoiMjI0MmY1MTAtMWE4ZS00YTc3LTgzNWYtNmZhMmZmOWQyNmJhIn0.5j-PgT0OAPR-N06bBvLB_AOpBNMwhyZyEw3wTiuAioQ,Addisson Lee,Stuart,GENII,Passage,2,UK,175,DE3BB776-7CEC-82A2-C923-02D4EBB6B180
Maison De Fleurs ,80-81 Queen's Circus,,London,SW11 8NE,,Urbit,9e0048b7-7ac9-448f-8787-213228a1c63c,eyJ0eXAiOiJKV1QiLCJhbGciOiJIUzI1NiJ9.eyJleHAiOjE4ODg1OTI3ODMsIm5hbWUiOiJNYWlzb24gRGUgRmxldXJzIiwiaXNzIjoidXJiaXQuY29tIiwicm9sZXMiOlsicmV0YWlsZXIiXSwic3ViIjoiOWUwMDQ4YjctN2FjOS00NDhmLTg3ODctMjEzMjI4YTFjNjNjIiwianRpIjoiODZhZGYzN2QtMWZmMi00ODBhLTgwMmYtNzA5OTc3MTkyNDA3IiwiaWF0IjoxNTczMjMyNzgzfQ.LasPeiDMfkfsOLcS8rf0C8Vf4VvlmjH6NtPl1iRlAxk,Addisson Lee,Stuart,,Passage,2,UK,184,4D414D9C-1262-87C9-CB44-D26E8A3D5A2D
Windmill Flowers,4 Windmill Row,,London,SE11 5DW,,Urbit,1e0219c0-85ee-4e6d-8013-5467c7964171,eyJ0eXAiOiJKV1QiLCJhbGciOiJIUzI1NiJ9.eyJpYXQiOjE1NzMyMzI3NDUsImlzcyI6InVyYml0LmNvbSIsIm5hbWUiOiJXaW5kbWlsbCBGbG93ZXJzIiwic3ViIjoiMWUwMjE5YzAtODVlZS00ZTZkLTgwMTMtNTQ2N2M3OTY0MTcxIiwiZXhwIjoxODg4NTkyNzQ1LCJyb2xlcyI6WyJyZXRhaWxlciJdLCJqdGkiOiJmM2NhY2FmMC03OTExLTQxMzMtOWQ2MS02ZmY4MjQ2ZmZkY2MifQ.S3JtO5rX4M8NBv6RmL8VTlx8DfgtTwtMKg8vGZ7NyEo,Addisson Lee,Stuart,,Passage,2,UK,185,7B2C8A27-531F-1D0E-E500-B7EBE7F12F6E
Sadie Rose,1B Aubert Park,,London,N5 1TL,,Urbit,95b69629-d613-4408-b133-9f27b9bfdb22,eyJ0eXAiOiJKV1QiLCJhbGciOiJIUzI1NiJ9.eyJpYXQiOjE1NzMyMzMxNjQsImlzcyI6InVyYml0LmNvbSIsIm5hbWUiOiJTYWRpZSBSb3NlIiwic3ViIjoiOTViNjk2MjktZDYxMy00NDA4LWIxMzMtOWYyN2I5YmZkYjIyIiwiZXhwIjoxODg4NTkzMTY0LCJyb2xlcyI6WyJyZXRhaWxlciJdLCJqdGkiOiJjMzMyZDJmNC03NTBjLTQ1MDMtOGUzZC00YWI1ZTY3NGE4Y2YifQ.kzwVEdXZBV7-BjPnoGIodgfsPJGCrJerEjd7O8hgBLM,Addisson Lee,Stuart,GENII,Passage,2,UK,176,CF3AB8AD-09B3-F9C1-42E1-1C57F27BB674
Queen's Park Station Flowers,Queens Park Station,Salusbury Rd,London,NW6 6NL,,Urbit,ae59b1e1-6df8-44e4-ab13-7d444d127020,eyJ0eXAiOiJKV1QiLCJhbGciOiJIUzI1NiJ9.eyJleHAiOjE4ODg1OTMwODgsIm5hbWUiOiJRdWVlbnMgUGFyayBTdGF0aW9uIEZsb3dlcnMiLCJpc3MiOiJ1cmJpdC5jb20iLCJyb2xlcyI6WyJyZXRhaWxlciJdLCJzdWIiOiJhZTU5YjFlMS02ZGY4LTQ0ZTQtYWIxMy03ZDQ0NGQxMjcwMjAiLCJqdGkiOiI0NzlmMDYzMi1kNzdkLTRhN2ItYjExMS02ZDRhYzMzNjQxYmUiLCJpYXQiOjE1NzMyMzMwODh9._0BJtcW8xZUXNjcxww8IKJADCNJaFRJp-Lip2Pj7guM,Addisson Lee,Stuart,,Passage,2,UK,186,65BEDAC8-4FF1-E51E-F8F2-9093FF97865F
Harley's Flowers ,262 Evelyn St,,London,SE8 5BZ,,Review early 2020,,,Addisson Lee,Stuart,,Passage,2,UK,,
Tame Pansy,16 Yarrell Mansions,Queens Club Gardens,London,W14 9TB,,Urbit,b66868ed-dee4-44d8-b1b1-4f17eb25cc3e,eyJ0eXAiOiJKV1QiLCJhbGciOiJIUzI1NiJ9.eyJleHAiOjE4ODg1OTI5ODEsIm5hbWUiOiJUYW1lIFBhbnN5IiwiaXNzIjoidXJiaXQuY29tIiwicm9sZXMiOlsicmV0YWlsZXIiXSwic3ViIjoiYjY2ODY4ZWQtZGVlNC00NGQ4LWIxYjEtNGYxN2ViMjVjYzNlIiwianRpIjoiMmJiNDI4MzYtYWEwYS00ODdhLWExZjYtYjFmZjM1OTY0ODY4IiwiaWF0IjoxNTczMjMyOTgxfQ.MptnvKxtSzqBFfv9URttTSBidwHQ6i1g3nP7cmzd3j4,Addisson Lee,Stuart,,Passage,2,UK,188,593997C0-2E90-7C6B-5004-A03ADF01DCCC
Southern Wild,129 Kirkdood Road,Pekham,London,SE15 2BG,,Review early 2020,,,Addisson Lee,Stuart,,Passage,2,UK,,
Paul Thomas Flowers ,Arch 83 Queens Circus,Queenstown Road,London,SW11 8NE,,Urbit,15be897d-2aa6-421c-8ce0-fec344b3acd4,eyJ0eXAiOiJKV1QiLCJhbGciOiJIUzI1NiJ9.eyJpYXQiOjE1NzMyMzIzOTEsImlzcyI6InVyYml0LmNvbSIsIm5hbWUiOiJQYXVsIFRob21hcyBGbG93ZXJzIiwic3ViIjoiMTViZTg5N2QtMmFhNi00MjFjLThjZTAtZmVjMzQ0YjNhY2Q0IiwiZXhwIjoxODg4NTkyMzkxLCJyb2xlcyI6WyJyZXRhaWxlciJdLCJqdGkiOiJmMmYzMTQ4Yy04YmM4LTQxNjUtODViNi03NjlhMGZmNDM0YzEifQ.N5amLMHuLbNEu2tesOb_6UnRR-Th5DCNPXjpJI4zPlY,Addisson Lee,Stuart,,Passage,2,UK,190,692CAFC2-338F-AF8B-E224-601CE1A25C7B
Larkspur & Lavender,4 Clarendon Close,,London,E9 7BY,,Urbit,3ede0a6f-9ae7-4a23-a1fb-ecf583a19c28,eyJ0eXAiOiJKV1QiLCJhbGciOiJIUzI1NiJ9.eyJpYXQiOjE1NzMyMzMwNDgsImlzcyI6InVyYml0LmNvbSIsIm5hbWUiOiJMYXJrc3B1ciAmIExhdmVuZGVyIiwic3ViIjoiM2VkZTBhNmYtOWFlNy00YTIzLWExZmItZWNmNTgzYTE5YzI4IiwiZXhwIjoxODg4NTkzMDQ4LCJyb2xlcyI6WyJyZXRhaWxlciJdLCJqdGkiOiIwMjYzZDhmNS1kODQyLTQzOTgtOTQwZi1lYzYyZTNjNzQxYjQifQ.Sg6ppSo8rRDBum7GK63D96xbmlwuecqd-N8Awes2iXI,Addisson Lee,Stuart,,Passage,2,UK,199,F2BB59B1-68DE-4B51-96DE-68BFA3F2F36D
Bloomologie,b21,8-12 Creekside,London,SE8 3DX,,Review early 2020,,,Addisson Lee,Stuart,,Passage,2,UK,,
Alice McCabe Flowers,"Unit 5, Burgess Business Park,","Parkhouse St, Camberwell,",London,SE5 7TJ,,Urbit,667ba04b-2441-4704-8266-3383112eb187,eyJhbGciOiJIUzI1NiIsInR5cCI6IkpXVCJ9.eyJpYXQiOjE1NzMyMzMxMTksImV4cCI6MTg4ODU5MzExOSwibmFtZSI6IkFsaWNlIE1jQ2FiZSBGbG93ZXJzIiwiaXNzIjoidXJiaXQuY29tIiwicm9sZXMiOlsicmV0YWlsZXIiXSwic3ViIjoiNjY3YmEwNGItMjQ0MS00NzA0LTgyNjYtMzM4MzExMmViMTg3IiwianRpIjoiY2U5MzIyNzYtMjcxYS00OTE2LWEyNjUtNmI2ZWEyODY3NTM3In0.3eVz4hyuv00cttNm_BVsylibH_Rlj8gJ4yd8z_B3KuE,Addisson Lee,Stuart,,Passage,2,UK,191,F68148CE-9523-9605-507E-EE6570F68FDB
Botanique Workshop,166 Stoke Newington Church St,Stoke Newington,London,N16 0JL,,Urbit,876ccba9-278e-4c08-9a00-901044ac5ebe,eyJ0eXAiOiJKV1QiLCJhbGciOiJIUzI1NiJ9.eyJpYXQiOjE1NzMyMzI2MTYsImlzcyI6InVyYml0LmNvbSIsIm5hbWUiOiJCb3RhbmlxdWUgV29ya3Nob3AgU3Rva2UgTmV3aW5ndG9uIiwic3ViIjoiODc2Y2NiYTktMjc4ZS00YzA4LTlhMDAtOTAxMDQ0YWM1ZWJlIiwiZXhwIjoxODg4NTkyNjE2LCJyb2xlcyI6WyJyZXRhaWxlciJdLCJqdGkiOiJmYzVmMmMzNy00MzI5LTRhNTgtYTk4NC05MjE0NGRhN2EyZGQifQ.JhmxtZqHQJy4OS4V_EtcSpsnZp_dhTgL1o6ywxBL5fI,Addisson Lee,Stuart,,Passage,2,UK,192,347FF3AB-A074-6CC0-A6D8-9E2EF3413373
Botanique Workshop,31 Exmouth Market,,London,EC1R 4QL,,Urbit,8e33653f-02a5-4a15-805b-42be0d0e141e,eyJ0eXAiOiJKV1QiLCJhbGciOiJIUzI1NiJ9.eyJleHAiOjE4ODg1OTIwODUsIm5hbWUiOiJCb3RhbmlxdWUgV29ya3Nob3AgRXhtb3V0aCBNYXJrZXQiLCJpc3MiOiJ1cmJpdC5jb20iLCJyb2xlcyI6WyJyZXRhaWxlciJdLCJzdWIiOiI4ZTMzNjUzZi0wMmE1LTRhMTUtODA1Yi00MmJlMGQwZTE0MWUiLCJqdGkiOiI4Yzg5ZDNiNS03ODY1LTQ2OWItOWVlMi1lODI1NmU3OTUzOWUiLCJpYXQiOjE1NzMyMzIwODV9.W_DPjWMcilP0GC4st0sXiF9mpza1_-R4HeOqjLTeSHs,,,,,1,UK,,
Elizabeth Marsh Floral Design ,M08-09 Flower Market,"New Covent Garden Market, Nine Elms Lane",London,SW8 5EH,,Urbit,49811a34-2e17-46d0-9b03-7fc9bcadd8bc,eyJhbGciOiJIUzI1NiIsInR5cCI6IkpXVCJ9.eyJpYXQiOjE1NzMyMzIwMTIsImV4cCI6MTg4ODU5MjAxMiwibmFtZSI6IkVsaXphYmV0aCBNYXJzaCBGbG9yYWwgRGVzaWduIiwiaXNzIjoidXJiaXQuY29tIiwicm9sZXMiOlsicmV0YWlsZXIiXSwic3ViIjoiNDk4MTFhMzQtMmUxNy00NmQwLTliMDMtN2ZjOWJjYWRkOGJjIiwianRpIjoiYjUyMDU0NzEtYjc1Yi00Yzg2LTlmMmQtYTY0NTFjNmM1OTU3In0.FFQhJHRxGgCZCgJR4ck_O81EFaIuv2l5F-B8ak97x6k,Addisson Lee,Stuart,,Passage,2,UK,193,7865310A-418C-63B3-FB67-FF7DE5ECEED8
Bimba,"Studio 2, 18 Tregaron Avenue, London, ",,London,N8 9EY,,Review early 2020,,,Addisson Lee,Stuart,,Passage,3,UK,,
The Blossom House,314c Park road,,London,N8 8LA,,Review early 2020,,,Addisson Lee,Stuart,,Passage,3,UK,,
Succulence London,Unit 50 Uplands Business Park,Uplands Entrance B,London,E17 5QZ,,Review early 2020,,,Addisson Lee,Stuart,,Passage,3,UK,,
Gray & Greenery,340 Durnsford Road,,London,SW19 8DX,,Review early 2020,,,Addisson Lee,Stuart,,Passage,3,UK,,
Bloom of the Block,2 NORMAN ROAD,STUDIO 1 ,London,N15 4ND,,Review early 2020,,,Addisson Lee,Stuart,,Passage,3,UK,,
Roses Enhanced ,639 Enterprise Center ,639 High Road ,London,N17 8AA,,Review early 2020,,,Addisson Lee,Stuart,,Passage,3,UK,,
Clare Oliver Floristry ,Studio 1,Princes Rise,London,SE13 7PP,,Review early 2020,,,Addisson Lee,Stuart,,Passage,3,UK,,
Gardenia of London,10 High Street Wimbledon,Wimbledon,London,SW19 5DX,,Review early 2020,,,Addisson Lee,Stuart,,Passage,3,UK,,
Design by Nature,"Florentia Clothing Village,",Vale Road,London,N4 1TD,,Review early 2020,,,Addisson Lee,Stuart,,Passage,3,UK,,
Emma's Tree House,39 Graham Avenue,,London,W13 9TQ,,Review early 2020,,,Addisson Lee,Stuart,,Passage,3,UK,,
Be My London,282 Worple Road ,,London,SW20 8RG,,Review early 2020,,,Addisson Lee,Stuart,,Passage,4,UK,,
Seasons Florist,253 Coombe Ln,Wimbledon,London,SW20 0RH,,Review early 2020,,,Addisson Lee,Stuart,,Passage,4,UK,,
The Flower Girl ,37 Darell Road,,London,TW9 4LF,,No,,,Addisson Lee,Stuart,,Passage,4,UK,,
Peduncle Flowers,"Flat 2 Saphire House, 32 East Barnet Road",,London,EN4 8RQ,,No,,,Addisson Lee,Stuart,,Passage,5,UK,,
Rose & Mary,197 Amyand Park Rd,Twickenham,London,TW1 3HN,,No,,,Addisson Lee,Stuart,,Passage,5,UK,,
Meadows Florist,17 High Street,Waltham Cross,London,EN8 7AA,,No,,,Addisson Lee,Stuart,,Passage,n/a,UK,,
Test Merchant 2,"Unit F, The Taper Building",120 Weston St,London,SE1 4GS,,Urbit,3e1263f4-ea16-428d-b34e-4960cd302c05,eyJ0eXAiOiJKV1QiLCJhbGciOiJIUzI1NiJ9.eyJuYW1lIjoiRmxvb20gSFEiLCJleHAiOjE4OTQ2MTc0OTEsImlhdCI6MTU3OTI1NzQ5MSwiaXNzIjoidXJiaXQuY29tIiwicm9sZXMiOlsicmV0YWlsZXIiXSwic3ViIjoiM2UxMjYzZjQtZWExNi00MjhkLWIzNGUtNDk2MGNkMzAyYzA1IiwianRpIjoiZjZiOTk3YTUtYzFiYS00ZGMwLWJkMmEtM2M0ODhhODVjNmJiIn0.5qQdUTkc0DQ4acizHbmfHgSS1197OqdKu-ArpJdHbHc,,,,,,,,
Floom,175 Long Ln,,London,SE1 4GS,,Urbit,3e1263f4-ea16-428d-b34e-4960cd302c05,eyJ0eXAiOiJKV1QiLCJhbGciOiJIUzI1NiJ9.eyJuYW1lIjoiRmxvb20gSFEiLCJleHAiOjE4OTQ2MTc0OTEsImlhdCI6MTU3OTI1NzQ5MSwiaXNzIjoidXJiaXQuY29tIiwicm9sZXMiOlsicmV0YWlsZXIiXSwic3ViIjoiM2UxMjYzZjQtZWExNi00MjhkLWIzNGUtNDk2MGNkMzAyYzA1IiwianRpIjoiZjZiOTk3YTUtYzFiYS00ZGMwLWJkMmEtM2M0ODhhODVjNmJiIn0.5qQdUTkc0DQ4acizHbmfHgSS1197OqdKu-ArpJdHbHc,,,,,,,,